DATA 624 Homework 1
…
a. Download tourism.xlsx from the book website and read it into R using readxl::read_excel().

tourism <- readxl::read_excel("tourism.xlsx")

b. Create a tsibble which is identical to the tourism tsibble from the tsibble package.

I first used the help function to explore what the tourism tsibble looks like, and then I followed the books examples on creating tsibbles while identifying the index column and the key columns.

tour_tsibble <- tourism %>%
  mutate(Quarter = yearquarter(Quarter)) %>%
  as_tsibble(key = c(Region, State, Purpose), index = Quarter)
tour_tsibble

## # A tsibble: 24,320 x 5 [1Q]
## # Key:       Region, State, Purpose [304]
##    Quarter Region   State           Purpose  Trips
##      <qtr> <chr>    <chr>           <chr>    <dbl>
##  1 1998 Q1 Adelaide South Australia Business  135.
##  2 1998 Q2 Adelaide South Australia Business  110.
##  3 1998 Q3 Adelaide South Australia Business  166.
##  4 1998 Q4 Adelaide South Australia Business  127.
##  5 1999 Q1 Adelaide South Australia Business  137.
##  6 1999 Q2 Adelaide South Australia Business  200.
##  7 1999 Q3 Adelaide South Australia Business  169.
##  8 1999 Q4 Adelaide South Australia Business  134.
##  9 2000 Q1 Adelaide South Australia Business  154.
## 10 2000 Q2 Adelaide South Australia Business  169.
## # ... with 24,310 more rows
…
d. Create a new tsibble which combines the Purposes and Regions, and just has total trips by State.

In this exercise I understood that we were just to find the total number of trips by State, which it implies that Purposes and Regions would already be combined when calculating this number. Thus, I used the group_by() function with states and then the summarise() function to sum up all the trips and saved it as a new tsibble under a new name. The result is the total number of trips by State and by the index (Quarter).

new_tour_tsibble <- tour_tsibble %>%
 group_by(State) %>% 
 summarise(Trips = sum(Trips))
new_tour_tsibble

## # A tsibble: 640 x 3 [1Q]
## # Key:       State [8]
##    State Quarter Trips
##    <chr>   <qtr> <dbl>
##  1 ACT   1998 Q1  551.
##  2 ACT   1998 Q2  416.
##  3 ACT   1998 Q3  436.
##  4 ACT   1998 Q4  450.
##  5 ACT   1999 Q1  379.
##  6 ACT   1999 Q2  558.
##  7 ACT   1999 Q3  449.
##  8 ACT   1999 Q4  595.
##  9 ACT   2000 Q1  600.
## 10 ACT   2000 Q2  557.
## # ... with 630 more rows
…
